…
### Specific questions

-   Generate a data frame that summarizes the number of mass shootings per year.


```r
# number of mass shootings per year
mass_shootings %>%
  group_by(year) %>%
  summarise(count = n())
```

```
## # A tibble: 37 × 2
##     year count
##    <dbl> <int>
##  1  1982     1
##  2  1984     2
##  3  1986     1
##  4  1987     1
##  5  1988     1
##  6  1989     2
##  7  1990     1
##  8  1991     3
##  9  1992     2
## 10  1993     4
## # ℹ 27 more rows
```
…
