…
```
## `summarise()` has grouped output by 'genre'. You can override using the
## `.groups` argument.
```

```r
genre_test
```

```
## # A tibble: 24 × 4
## # Groups:   genre [14]
##    genre     test      n  prop
##    <chr>     <fct> <int> <dbl>
##  1 Action    Fail    260 0.707
##  2 Action    Pass    108 0.293
##  3 Adventure Fail     52 0.559
##  4 Adventure Pass     41 0.441
##  5 Animation Fail     63 0.677
##  6 Animation Pass     30 0.323
##  7 Biography Fail     36 0.554
##  8 Biography Pass     29 0.446
##  9 Comedy    Fail    138 0.427
## 10 Comedy    Pass    185 0.573
## # ℹ 14 more rows
```
…
```r
lr_preds <- lr_fit %>%
  augment(new_data = bechdel_train) %>%
  mutate(.pred_match = if_else(test == .pred_class, 1, 0))
lr_preds
```

```
## # A tibble: 1,114 × 14
##     year title     test  budget_2013 domgross_2013 intgross_2013 rated metascore
##    <dbl> <chr>     <fct>       <dbl>         <dbl>         <dbl> <chr>     <dbl>
##  1  2013 2 Guns    Fail          6.1          7.56          13.2 R            55
##  2  2013 47 Ronin  Fail         22.5          3.84          14.6 PG-13        29
##  3  2013 A Good D… Fail          9.2          6.73          30.4 R            28
##  4  2013 After Ea… Fail         13            6.05          24.4 PG-13        33
##  5  2013 Captain … Fail          5.5         10.7           21.9 PG-13        83
##  6  2013 Cloudy w… Fail          7.8         12.0           27.2 PG           59
##  7  2013 Escape P… Fail          7            2.52          10.4 R            49
##  8  2013 Gangster… Fail          6            4.60          10.4 R            40
##  9  2013 Gravity   Fail         11           27.2           70.9 PG-13        96
## 10  2013 Grown Up… Fail          8           13.4           24.7 PG-13        19
## # ℹ 1,104 more rows
## # ℹ 6 more variables: imdb_rating <dbl>, genre <chr>, .pred_class <fct>,
## #   .pred_Fail <dbl>, .pred_Pass <dbl>, .pred_match <dbl>
```
…
# What does the data for ROC look like?
tree_preds %>% 
  collect_predictions() %>% 
  roc_curve(truth = test, .pred_Pass)  
```

```
## # A tibble: 29 × 3
##    .threshold specificity sensitivity
##         <dbl>       <dbl>       <dbl>
##  1   -Inf         0             1    
##  2      0.164     0             1    
##  3      0.169     0.00805       0.992
##  4      0.171     0.0101        0.982
##  5      0.173     0.0101        0.979
##  6      0.203     0.0161        0.972
##  7      0.213     0.0181        0.961
##  8      0.331     0.0262        0.951
##  9      0.345     0.0644        0.919
## 10      0.398     0.0885        0.885
## # ℹ 19 more rows
```
…
```r
# Show performance for every single fold:
log_res %>%  collect_metrics(summarize = FALSE)
```

```
## # A tibble: 80 × 5
##    id     .metric   .estimator .estimate .config             
##    <chr>  <chr>     <chr>          <dbl> <chr>               
##  1 Fold01 recall    binary        0.403  Preprocessor1_Model1
##  2 Fold01 precision binary        0.581  Preprocessor1_Model1
##  3 Fold01 f_meas    binary        0.476  Preprocessor1_Model1
##  4 Fold01 accuracy  binary        0.509  Preprocessor1_Model1
##  5 Fold01 kap       binary        0.0417 Preprocessor1_Model1
##  6 Fold01 sens      binary        0.403  Preprocessor1_Model1
##  7 Fold01 spec      binary        0.64   Preprocessor1_Model1
##  8 Fold01 roc_auc   binary        0.508  Preprocessor1_Model1
##  9 Fold02 recall    binary        0.339  Preprocessor1_Model1
## 10 Fold02 precision binary        0.477  Preprocessor1_Model1
## # ℹ 70 more rows
```
…
